%YAML 1.1
%TAG !u! tag:unity3d.com,2011:
--- !u!21 &2100000
Material:
  serializedVersion: 6
  m_ObjectHideFlags: 0
  m_PrefabParentObject: {fileID: 0}
  m_PrefabInternal: {fileID: 0}
  m_Name: missile_007_PBR
  m_Shader: {fileID: 46, guid: 0000000000000000f000000000000000, type: 0}
  m_ShaderKeywords: _EMISSION _NORMALMAP _SPECGLOSSMAP
  m_LightmapFlags: 1
  m_EnableInstancingVariants: 0
  m_DoubleSidedGI: 0
  m_CustomRenderQueue: -1
  stringTagMap: {}
  disabledShaderPasses: []
  m_SavedProperties:
    serializedVersion: 3
    m_TexEnvs:
    - _BumpMap:
        m_Texture: {fileID: 2800000, guid: 17d43766ca59fb74dba0294194448581, type: 3}
        m_Scale: {x: 1, y: 1}
        m_Offset: {x: 0, y: 0}
    - _Cubemap:
        m_Texture: {fileID: 8900000, guid: bf8bed8b5cbfdaf46aec3ba6715f24e6, type: 3}
        m_Scale: {x: 1, y: 1}
        m_Offset: {x: 0, y: 0}
    - _DetailAlbedoMap:
        m_Texture: {fileID: 0}
        m_Scale: {x: 1, y: 1}
        m_Offset: {x: 0, y: 0}
    - _DetailMask:
        m_Texture: {fileID: 0}
        m_Scale: {x: 1, y: 1}
        m_Offset: {x: 0, y: 0}
    - _DetailNormalMap:
        m_Texture: {fileID: 0}
        m_Scale: {x: 1, y: 1}
        m_Offset: {x: 0, y: 0}
    - _Diffuse:
        m_Texture: {fileID: 2800000, guid: 4fb900dff7676404680c5b22c645fbb7, type: 3}
        m_Scale: {x: 1, y: 1}
        m_Offset: {x: 0, y: 0}
    - _EmissionMap:
        m_Texture: {fileID: 2800000, guid: dd733e807fffebf489355aec83360234, type: 3}
        m_Scale: {x: 1, y: 1}
        m_Offset: {x: 0, y: 0}
    - _Glow:
        m_Texture: {fileID: 2800000, guid: d614a85b1b3e9fb41a582db0f46b221d, type: 3}
        m_Scale: {x: 1, y: 1}
        m_Offset: {x: 0, y: 0}
    - _MainTex:
        m_Texture: {fileID: 2800000, guid: 9cb2bfc22d051524eadc490b4d3c527b, type: 3}
        m_Scale: {x: 1, y: 1}
        m_Offset: {x: 0, y: 0}
    - _Mask:
        m_Texture: {fileID: 0}
        m_Scale: {x: 1, y: 1}
        m_Offset: {x: 0, y: 0}
    - _MetallicGlossMap:
        m_Texture: {fileID: 0}
        m_Scale: {x: 1, y: 1}
        m_Offset: {x: 0, y: 0}
    - _Noise:
        m_Texture: {fileID: 0}
        m_Scale: {x: 1, y: 1}
        m_Offset: {x: 0, y: 0}
    - _Normal:
        m_Texture: {fileID: 2800000, guid: 2e9dd4495e2b68a4a967f39b01da1333, type: 3}
        m_Scale: {x: 1, y: 1}
        m_Offset: {x: 0, y: 0}
    - _OcclusionMap:
        m_Texture: {fileID: 0}
        m_Scale: {x: 1, y: 1}
        m_Offset: {x: 0, y: 0}
    - _ParallaxMap:
        m_Texture: {fileID: 0}
        m_Scale: {x: 1, y: 1}
        m_Offset: {x: 0, y: 0}
    - _SpecGlossMap:
        m_Texture: {fileID: 2800000, guid: 4fb900dff7676404680c5b22c645fbb7, type: 3}
        m_Scale: {x: 1, y: 1}
        m_Offset: {x: 0, y: 0}
    m_Floats:
    - _BumpScale: 1
    - _Cutoff: 0.5
    - _DepthBlend: 0
    - _DetailNormalMapScale: 1
    - _DiffusePower: 1
    - _DstBlend: 0
    - _FresnelMult: 0.5
    - _FresnelPower: 5
    - _GlossMapScale: 0.461
    - _Glossiness: 0.407
    - _GlossyReflections: 1
    - _GlowMult: 30
    - _InvFade: 1
    - _MaskNoiseFactor: 0
    - _Metallic: 0.908
    - _Mode: 0
    - _NoiseFactor: 0
    - _OcclusionStrength: 1
    - _Parallax: 0.005
    - _ReflectionDesaturation: 0
    - _ReflectionMult: 0.1
    - _Shininess: 0.3706869
    - _SmoothnessTextureChannel: 0
    - _SpecularA: 293.9
    - _SpecularAdd: 0.5
    - _SpecularB: 25.02
    - _SpecularHighlights: 1
    - _SpecularMult: 20
    - _SpecularRatio: 0.15
    - _SrcBlend: 1
    - _UPan: 0
    - _UVSec: 0
    - _VPan: 0
    - _ZWrite: 1
    m_Colors:
    - _Color: {r: 1, g: 1, b: 1, a: 1}
    - _EmissionColor: {r: 2, g: 2, b: 2, a: 1}
    - _SpecColor: {r: 0.28676468, g: 0.28676468, b: 0.28676468, a: 1}
    - _Tint: {r: 0.5, g: 0.5, b: 0.5, a: 1}
    - _TintColor: {r: 0.5, g: 0.5, b: 0.5, a: 0.5}
    - _node_1308: {r: 1, g: 1, b: 1, a: 1}
