%YAML 1.1
%TAG !u! tag:unity3d.com,2011:
--- !u!21 &2100000
Material:
  serializedVersion: 6
  m_ObjectHideFlags: 0
  m_PrefabParentObject: {fileID: 0}
  m_PrefabInternal: {fileID: 0}
  m_Name: Nebula_Red_001
  m_Shader: {fileID: 4800000, guid: efb9c93ae1381254e9650b03575efd9b, type: 3}
  m_ShaderKeywords: 
  m_LightmapFlags: 4
  m_EnableInstancingVariants: 0
  m_DoubleSidedGI: 0
  m_CustomRenderQueue: -1
  stringTagMap: {}
  disabledShaderPasses: []
  m_SavedProperties:
    serializedVersion: 3
    m_TexEnvs:
    - _CoronaNoise:
        m_Texture: {fileID: 2800000, guid: 50f09f657475dde4a8e6318909bc5604, type: 3}
        m_Scale: {x: 1, y: 1}
        m_Offset: {x: 0, y: 0}
    - _MainTex:
        m_Texture: {fileID: 2800000, guid: a903273da18a84a42b1b2f9293b83ec1, type: 3}
        m_Scale: {x: 1, y: 1}
        m_Offset: {x: 0, y: 0}
    - _Nebula:
        m_Texture: {fileID: 2800000, guid: 87a93aa207c5201489876e9c4292685b, type: 3}
        m_Scale: {x: 1, y: 1}
        m_Offset: {x: 0, y: 0}
    m_Floats:
    - _CoronaAmp: 41.1
    - _CoronaBoost: 1
    - _CoronaExp: 0.52
    - _CoronaFalloff: 1
    - _CoronaFluidInfluence: 16.26
    - _CoronaFluidTile: 16.89
    - _CoronaSpeed: 13.08
    - _CoronaTileX: 12.35
    - _CoronaTileY: 1
    - _DischargePanSpeed: 4.99
    - _DischargeTileX: 5.62
    - _DischargeTileY: 4.98
    - _EdgeMaskFalloff: 4.85
    - _EdgeMaskPower: 1.65
    - _FadeEnd: 50
    - _FadeStart: 40
    - _InvFade: 1
    - _MaxFadeEnd: 120
    - _MaxFadeStart: 5
    - _MinFadeEnd: 2
    - _MinFadeStart: 0
    - _SolarStormFalloff: 6.01
    - _SolarStormPower: 1
    m_Colors:
    - _Color: {r: 1, g: 1, b: 1, a: 1}
    - _ColorFrom: {r: 1, g: 0, b: 0, a: 1}
    - _ColorMaskFrom: {r: 1, g: 0.5633874, b: 0.09558821, a: 0.5019608}
    - _ColorMaskTo: {r: 0.99999994, g: 0, b: 0, a: 0.5019608}
    - _ColorTo: {r: 1, g: 0.58823526, b: 0.58823526, a: 1}
    - _CoronaColor: {r: 1, g: 1, b: 1, a: 1}
