%YAML 1.1
%TAG !u! tag:unity3d.com,2011:
--- !u!21 &2100000
Material:
  serializedVersion: 6
  m_ObjectHideFlags: 0
  m_PrefabParentObject: {fileID: 0}
  m_PrefabInternal: {fileID: 0}
  m_Name: WarpJumpTunnel_002_red_linear
  m_Shader: {fileID: 4800000, guid: cb98487a0fee6024db86b396e806f8d7, type: 3}
  m_ShaderKeywords: 
  m_LightmapFlags: 4
  m_EnableInstancingVariants: 0
  m_DoubleSidedGI: 0
  m_CustomRenderQueue: -1
  stringTagMap: {}
  disabledShaderPasses: []
  m_SavedProperties:
    serializedVersion: 3
    m_TexEnvs:
    - _MainTex:
        m_Texture: {fileID: 2800000, guid: 701de97950dcd70469736b201e292c6a, type: 3}
        m_Scale: {x: 1, y: 1}
        m_Offset: {x: 0, y: 0}
    - _texcoord:
        m_Texture: {fileID: 0}
        m_Scale: {x: 1, y: 1}
        m_Offset: {x: 0, y: 0}
    m_Floats:
    - _Alpha: 1
    - _EdgeFadeMult: 1.91
    - _EdgeFadePow: 1.32
    - _InvFade: 3
    - _Mult: 9.68
    - _Twist: 4.01
    - __dirty: 1
    m_Colors:
    - _TintColor: {r: 0, g: 0, b: 0, a: 0}
    - _TintColorA: {r: 0.99999994, g: 0.4344947, b: 0, a: 1}
    - _TintColorB: {r: 1, g: 0.49411765, b: 0.14117648, a: 1}
